E:\workspace_sts\com.example\src\main\java\com\example\test\EventTest.java
E:\workspace_sts\com.example\src\main\java\com\example\service\ExampleService.java
E:\workspace_sts\com.example\src\main\java\com\example\test\ParseCondition.java
E:\workspace_sts\com.example\src\main\java\com\example\controller\ExampleController.java
